…
``` r
corpus$individual_frequency
```

    ## # A tibble: 119 x 6
    ##    doc_id                         keyword      ct doc_num total_words      pct
    ##    <chr>                          <chr>     <int> <chr>         <int>    <dbl>
    ##  1 CNET - How US cybersleuths dec because       1 1              1327 0.000754
    ##  2 CNN - DNC hack                 because       0 2              1024 0       
    ##  3 IVN - CNN Covering For DNC Cor because       2 3               880 0.00227 
    ##  4 Red Nation- FBI Didn't Analyze because       0 4               377 0       
    ##  5 The Nation - A New Report Rais because       2 5              5119 0.000391
    ##  6 VOA- Think Tank- Cyber Firm at because       2 6              1430 0.00140 
    ##  7 WaPo - DNC hack                because       2 7              1694 0.00118 
    ##  8 CNET - How US cybersleuths dec therefore     0 1              1327 0       
    ##  9 CNN - DNC hack                 therefore     0 2              1024 0       
    ## 10 IVN - CNN Covering For DNC Cor therefore     0 3               880 0       
    ## # ... with 109 more rows
…
